<?xml version='1.0' encoding='UTF-8' standalone='yes' ?>
<gpx version="1.1" xmlns="http://www.topografix.com/GPX/1/1" xmlns:geotracker="http://ilyabogdanovich.com/gpx/extensions/geotracker" xmlns:xsi="http://www.w3.org/2001/XMLSchema-instance" xsi:schemaLocation="http://www.topografix.com/GPX/1/1 http://www.topografix.com/GPX/1/1/gpx.xsd" creator="Geo Tracker 4.0.2.1750 for Android by Ilya Bogdanovich">
  <metadata>
    <name>26 ม.ค. 2021 15:22:32</name>
    <author>
      <name>Recorded in Geo Tracker for Android from Ilya Bogdanovich</name>
      <link href="https://play.google.com/store/apps/details?id=com.ilyabogdanovich.geotracker" />
    </author>
    <link href="https://play.google.com/store/apps/details?id=com.ilyabogdanovich.geotracker" />
    <time>2021-01-26T08:22:32.597Z</time>
  </metadata>
  <trk>
    <name>26 ม.ค. 2021 15:22:32</name>
    <src>Recorded in Geo Tracker for Android from Ilya Bogdanovich</src>
    <link href="https://play.google.com/store/apps/details?id=com.ilyabogdanovich.geotracker" />
    <extensions>
      <geotracker:meta>
        <length>3393.86</length>
        <duration>572100</duration>
        <creationtime>2021-01-26T08:22:32.597Z</creationtime>
        <activity>0</activity>
      </geotracker:meta>
    </extensions>
    <trkseg>
      <trkpt lat="18.797115" lon="99.032861">
        <ele>259.39</ele>
        <time>2021-01-26T08:22:31.999Z</time>
        <extensions>
          <geotracker:meta s="0" />
        </extensions>
      </trkpt>
      <trkpt lat="18.797047" lon="99.032935">
        <ele>261.38</ele>
        <time>2021-01-26T08:22:50.999Z</time>
        <extensions>
          <geotracker:meta c="3.04" s="2.31" />
        </extensions>
      </trkpt>
      <trkpt lat="18.796947" lon="99.032943">
        <ele>261.51</ele>
        <time>2021-01-26T08:22:54.999Z</time>
        <extensions>
          <geotracker:meta c="2.95" s="1.33" />
        </extensions>
      </trkpt>
      <trkpt lat="18.796901" lon="99.033044">
        <ele>262.58</ele>
        <time>2021-01-26T08:23:02.999Z</time>
        <extensions>
          <geotracker:meta c="2.59" s="3.01" />
        </extensions>
      </trkpt>
      <trkpt lat="18.796777" lon="99.033068">
        <ele>263.65</ele>
        <time>2021-01-26T08:23:05.999Z</time>
        <extensions>
          <geotracker:meta c="3.15" s="5.04" />
        </extensions>
      </trkpt>
      <trkpt lat="18.796684" lon="99.033069">
        <ele>263.53</ele>
        <time>2021-01-26T08:23:07.999Z</time>
        <extensions>
          <geotracker:meta c="3.11" s="4.39" />
        </extensions>
      </trkpt>
      <trkpt lat="18.796551" lon="99.033082">
        <ele>263.07</ele>
        <time>2021-01-26T08:23:10.999Z</time>
        <extensions>
          <geotracker:meta c="3.02" s="5.04" />
        </extensions>
      </trkpt>
      <trkpt lat="18.796459" lon="99.033104">
        <ele>263.51</ele>
        <time>2021-01-26T08:23:12.999Z</time>
        <extensions>
          <geotracker:meta c="2.81" s="5.11" />
        </extensions>
      </trkpt>
      <trkpt lat="18.796337" lon="99.033144">
        <ele>263.87</ele>
        <time>2021-01-26T08:23:15.999Z</time>
        <extensions>
          <geotracker:meta c="3.25" s="3.72" />
        </extensions>
      </trkpt>
      <trkpt lat="18.796269" lon="99.033052">
        <ele>262.62</ele>
        <time>2021-01-26T08:23:18.999Z</time>
        <extensions>
          <geotracker:meta c="4.45" s="5.29" />
        </extensions>
      </trkpt>
      <trkpt lat="18.796241" lon="99.032937">
        <ele>262.52</ele>
        <time>2021-01-26T08:23:20.999Z</time>
        <extensions>
          <geotracker:meta c="4.43" s="5.99" />
        </extensions>
      </trkpt>
      <trkpt lat="18.796212" lon="99.032835">
        <ele>262.2</ele>
        <time>2021-01-26T08:23:22.999Z</time>
        <extensions>
          <geotracker:meta c="4.34" s="5.43" />
        </extensions>
      </trkpt>
      <trkpt lat="18.796154" lon="99.032702">
        <ele>262.27</ele>
        <time>2021-01-26T08:23:25.999Z</time>
        <extensions>
          <geotracker:meta c="4.23" s="5.52" />
        </extensions>
      </trkpt>
      <trkpt lat="18.796107" lon="99.032609">
        <ele>262.14</ele>
        <time>2021-01-26T08:23:27.999Z</time>
        <extensions>
          <geotracker:meta c="4.23" s="4.92" />
        </extensions>
      </trkpt>
      <trkpt lat="18.796061" lon="99.032519">
        <ele>262.5</ele>
        <time>2021-01-26T08:23:29.999Z</time>
        <extensions>
          <geotracker:meta c="4.22" s="5.12" />
        </extensions>
      </trkpt>
      <trkpt lat="18.796012" lon="99.032431">
        <ele>262.49</ele>
        <time>2021-01-26T08:23:31.999Z</time>
        <extensions>
          <geotracker:meta c="4.2" s="5.75" />
        </extensions>
      </trkpt>
      <trkpt lat="18.795956" lon="99.032327">
        <ele>262.95</ele>
        <time>2021-01-26T08:23:33.999Z</time>
        <extensions>
          <geotracker:meta c="4.23" s="6.4" />
        </extensions>
      </trkpt>
      <trkpt lat="18.795895" lon="99.032215">
        <ele>261.63</ele>
        <time>2021-01-26T08:23:35.999Z</time>
        <extensions>
          <geotracker:meta c="4.2" s="6.58" />
        </extensions>
      </trkpt>
      <trkpt lat="18.795825" lon="99.032103">
        <ele>261.35</ele>
        <time>2021-01-26T08:23:37.999Z</time>
        <extensions>
          <geotracker:meta c="4.14" s="6.1" />
        </extensions>
      </trkpt>
      <trkpt lat="18.795758" lon="99.031986">
        <ele>261.54</ele>
        <time>2021-01-26T08:23:39.999Z</time>
        <extensions>
          <geotracker:meta c="4.18" s="6.62" />
        </extensions>
      </trkpt>
      <trkpt lat="18.795688" lon="99.031857">
        <ele>261.43</ele>
        <time>2021-01-26T08:23:41.999Z</time>
        <extensions>
          <geotracker:meta c="4.19" s="7.45" />
        </extensions>
      </trkpt>
      <trkpt lat="18.795623" lon="99.03174">
        <ele>261.66</ele>
        <time>2021-01-26T08:23:43.999Z</time>
        <extensions>
          <geotracker:meta c="4.21" s="7.4" />
        </extensions>
      </trkpt>
      <trkpt lat="18.795564" lon="99.031607">
        <ele>262.04</ele>
        <time>2021-01-26T08:23:45.999Z</time>
        <extensions>
          <geotracker:meta c="4.23" s="7.89" />
        </extensions>
      </trkpt>
      <trkpt lat="18.795503" lon="99.031473">
        <ele>261.56</ele>
        <time>2021-01-26T08:23:47.999Z</time>
        <extensions>
          <geotracker:meta c="4.24" s="7.79" />
        </extensions>
      </trkpt>
      <trkpt lat="18.795442" lon="99.03134">
        <ele>261.35</ele>
        <time>2021-01-26T08:23:49.999Z</time>
        <extensions>
          <geotracker:meta c="4.23" s="7.19" />
        </extensions>
      </trkpt>
      <trkpt lat="18.795387" lon="99.031227">
        <ele>261.37</ele>
        <time>2021-01-26T08:23:51.999Z</time>
        <extensions>
          <geotracker:meta c="4.21" s="6.46" />
        </extensions>
      </trkpt>
      <trkpt lat="18.79534" lon="99.031131">
        <ele>260.72</ele>
        <time>2021-01-26T08:23:53.999Z</time>
        <extensions>
          <geotracker:meta c="4.25" s="3.99" />
        </extensions>
      </trkpt>
      <trkpt lat="18.795302" lon="99.031032">
        <ele>261.83</ele>
        <time>2021-01-26T08:23:57.999Z</time>
        <extensions>
          <geotracker:meta c="4.42" s="4.33" />
        </extensions>
      </trkpt>
      <trkpt lat="18.795279" lon="99.030935">
        <ele>261.56</ele>
        <time>2021-01-26T08:23:59.999Z</time>
        <extensions>
          <geotracker:meta c="4.48" s="6.29" />
        </extensions>
      </trkpt>
      <trkpt lat="18.795251" lon="99.030821">
        <ele>261.95</ele>
        <time>2021-01-26T08:24:01.999Z</time>
        <extensions>
          <geotracker:meta c="4.48" s="6.64" />
        </extensions>
      </trkpt>
      <trkpt lat="18.795223" lon="99.030703">
        <ele>262.3</ele>
        <time>2021-01-26T08:24:03.999Z</time>
        <extensions>
          <geotracker:meta c="4.41" s="5.61" />
        </extensions>
      </trkpt>
      <trkpt lat="18.795184" lon="99.030598">
        <ele>261.88</ele>
        <time>2021-01-26T08:24:06.999Z</time>
        <extensions>
          <geotracker:meta c="4.28" s="2.53" />
        </extensions>
      </trkpt>
      <trkpt lat="18.795157" lon="99.030482">
        <ele>260.99</ele>
        <time>2021-01-26T08:24:11.999Z</time>
        <extensions>
          <geotracker:meta c="4.94" s="3.32" />
        </extensions>
      </trkpt>
      <trkpt lat="18.795222" lon="99.030369">
        <ele>261.55</ele>
        <time>2021-01-26T08:24:14.999Z</time>
        <extensions>
          <geotracker:meta c="5.59" s="4.62" />
        </extensions>
      </trkpt>
      <trkpt lat="18.795304" lon="99.030307">
        <ele>262.5</ele>
        <time>2021-01-26T08:24:16.999Z</time>
        <extensions>
          <geotracker:meta c="5.72" s="5.67" />
        </extensions>
      </trkpt>
      <trkpt lat="18.795401" lon="99.030238">
        <ele>263.36</ele>
        <time>2021-01-26T08:24:18.999Z</time>
        <extensions>
          <geotracker:meta c="5.69" s="5.05" />
        </extensions>
      </trkpt>
      <trkpt lat="18.795465" lon="99.03014">
        <ele>261.52</ele>
        <time>2021-01-26T08:24:21.999Z</time>
        <extensions>
          <geotracker:meta c="4.58" s="4.62" />
        </extensions>
      </trkpt>
      <trkpt lat="18.79543" lon="99.030039">
        <ele>261.62</ele>
        <time>2021-01-26T08:24:23.999Z</time>
        <extensions>
          <geotracker:meta c="4.18" s="5.7" />
        </extensions>
      </trkpt>
      <trkpt lat="18.795352" lon="99.029954">
        <ele>260.62</ele>
        <time>2021-01-26T08:24:25.999Z</time>
        <extensions>
          <geotracker:meta c="3.9" s="5.64" />
        </extensions>
      </trkpt>
      <trkpt lat="18.795267" lon="99.029893">
        <ele>261.06</ele>
        <time>2021-01-26T08:24:27.999Z</time>
        <extensions>
          <geotracker:meta c="3.78" s="4.64" />
        </extensions>
      </trkpt>
      <trkpt lat="18.795183" lon="99.029856">
        <ele>262.85</ele>
        <time>2021-01-26T08:24:30.999Z</time>
        <extensions>
          <geotracker:meta c="3.57" s="2.17" />
        </extensions>
      </trkpt>
      <trkpt lat="18.795077" lon="99.029806">
        <ele>263.74</ele>
        <time>2021-01-26T08:24:36.999Z</time>
        <extensions>
          <geotracker:meta c="3.42" s="2.55" />
        </extensions>
      </trkpt>
      <trkpt lat="18.794981" lon="99.029796">
        <ele>263.92</ele>
        <time>2021-01-26T08:24:39.999Z</time>
        <extensions>
          <geotracker:meta c="3.21" s="4.31" />
        </extensions>
      </trkpt>
      <trkpt lat="18.794885" lon="99.029789">
        <ele>263.38</ele>
        <time>2021-01-26T08:24:41.999Z</time>
        <extensions>
          <geotracker:meta c="3.26" s="5.58" />
        </extensions>
      </trkpt>
      <trkpt lat="18.794779" lon="99.029777">
        <ele>263.38</ele>
        <time>2021-01-26T08:24:43.999Z</time>
        <extensions>
          <geotracker:meta c="3.31" s="5.55" />
        </extensions>
      </trkpt>
      <trkpt lat="18.794665" lon="99.029756">
        <ele>263.06</ele>
        <time>2021-01-26T08:24:45.999Z</time>
        <extensions>
          <geotracker:meta c="3.43" s="5.99" />
        </extensions>
      </trkpt>
      <trkpt lat="18.794556" lon="99.029721">
        <ele>263.15</ele>
        <time>2021-01-26T08:24:47.999Z</time>
        <extensions>
          <geotracker:meta c="3.59" s="6.18" />
        </extensions>
      </trkpt>
      <trkpt lat="18.794456" lon="99.029647">
        <ele>263.9</ele>
        <time>2021-01-26T08:24:49.999Z</time>
        <extensions>
          <geotracker:meta c="3.94" s="6.09" />
        </extensions>
      </trkpt>
      <trkpt lat="18.79438" lon="99.029546">
        <ele>264.74</ele>
        <time>2021-01-26T08:24:51.999Z</time>
        <extensions>
          <geotracker:meta c="4.29" s="5.8" />
        </extensions>
      </trkpt>
      <trkpt lat="18.794349" lon="99.029428">
        <ele>263.65</ele>
        <time>2021-01-26T08:24:53.999Z</time>
        <extensions>
          <geotracker:meta c="4.48" s="5.54" />
        </extensions>
      </trkpt>
      <trkpt lat="18.794342" lon="99.029323">
        <ele>263.21</ele>
        <time>2021-01-26T08:24:55.999Z</time>
        <extensions>
          <geotracker:meta c="4.62" s="4.58" />
        </extensions>
      </trkpt>
      <trkpt lat="18.794347" lon="99.0292">
        <ele>262.54</ele>
        <time>2021-01-26T08:24:58.999Z</time>
        <extensions>
          <geotracker:meta c="4.68" s="4.22" />
        </extensions>
      </trkpt>
      <trkpt lat="18.794349" lon="99.029062">
        <ele>262.97</ele>
        <time>2021-01-26T08:25:01.999Z</time>
        <extensions>
          <geotracker:meta c="4.74" s="5.27" />
        </extensions>
      </trkpt>
      <trkpt lat="18.79434" lon="99.02893">
        <ele>262.22</ele>
        <time>2021-01-26T08:25:03.999Z</time>
        <extensions>
          <geotracker:meta c="4.65" s="6.98" />
        </extensions>
      </trkpt>
      <trkpt lat="18.794332" lon="99.028775">
        <ele>262.51</ele>
        <time>2021-01-26T08:25:05.999Z</time>
        <extensions>
          <geotracker:meta c="4.68" s="7.73" />
        </extensions>
      </trkpt>
      <trkpt lat="18.794327" lon="99.028617">
        <ele>262.27</ele>
        <time>2021-01-26T08:25:07.999Z</time>
        <extensions>
          <geotracker:meta c="4.67" s="8.47" />
        </extensions>
      </trkpt>
      <trkpt lat="18.794321" lon="99.028449">
        <ele>262.33</ele>
        <time>2021-01-26T08:25:09.999Z</time>
        <extensions>
          <geotracker:meta c="4.68" s="8.58" />
        </extensions>
      </trkpt>
      <trkpt lat="18.794317" lon="99.028279">
        <ele>262.6</ele>
        <time>2021-01-26T08:25:11.999Z</time>
        <extensions>
          <geotracker:meta c="4.68" s="8.46" />
        </extensions>
      </trkpt>
      <trkpt lat="18.794312" lon="99.028124">
        <ele>262.55</ele>
        <time>2021-01-26T08:25:13.999Z</time>
        <extensions>
          <geotracker:meta c="4.68" s="7.94" />
        </extensions>
      </trkpt>
      <trkpt lat="18.794307" lon="99.027977">
        <ele>263.06</ele>
        <time>2021-01-26T08:25:15.999Z</time>
        <extensions>
          <geotracker:meta c="4.66" s="7.84" />
        </extensions>
      </trkpt>
      <trkpt lat="18.794299" lon="99.02782">
        <ele>263.08</ele>
        <time>2021-01-26T08:25:17.999Z</time>
        <extensions>
          <geotracker:meta c="4.66" s="8.53" />
        </extensions>
      </trkpt>
      <trkpt lat="18.794293" lon="99.027644">
        <ele>263</ele>
        <time>2021-01-26T08:25:19.999Z</time>
        <extensions>
          <geotracker:meta c="4.68" s="9.3" />
        </extensions>
      </trkpt>
      <trkpt lat="18.794292" lon="99.027462">
        <ele>263.3</ele>
        <time>2021-01-26T08:25:21.999Z</time>
        <extensions>
          <geotracker:meta c="4.69" s="9.7" />
        </extensions>
      </trkpt>
      <trkpt lat="18.794287" lon="99.027277">
        <ele>263.22</ele>
        <time>2021-01-26T08:25:23.999Z</time>
        <extensions>
          <geotracker:meta c="4.68" s="9.69" />
        </extensions>
      </trkpt>
      <trkpt lat="18.794281" lon="99.027094">
        <ele>263.18</ele>
        <time>2021-01-26T08:25:25.999Z</time>
        <extensions>
          <geotracker:meta c="4.67" s="9.67" />
        </extensions>
      </trkpt>
      <trkpt lat="18.794274" lon="99.026904">
        <ele>262.95</ele>
        <time>2021-01-26T08:25:27.999Z</time>
        <extensions>
          <geotracker:meta c="4.67" s="10.01" />
        </extensions>
      </trkpt>
      <trkpt lat="18.794273" lon="99.026808">
        <ele>263.09</ele>
        <time>2021-01-26T08:25:28.999Z</time>
        <extensions>
          <geotracker:meta c="4.68" s="10.09" />
        </extensions>
      </trkpt>
      <trkpt lat="18.794271" lon="99.026711">
        <ele>263.13</ele>
        <time>2021-01-26T08:25:29.999Z</time>
        <extensions>
          <geotracker:meta c="4.68" s="10.18" />
        </extensions>
      </trkpt>
      <trkpt lat="18.794268" lon="99.026614">
        <ele>263.16</ele>
        <time>2021-01-26T08:25:30.999Z</time>
        <extensions>
          <geotracker:meta c="4.69" s="10.36" />
        </extensions>
      </trkpt>
      <trkpt lat="18.794265" lon="99.026515">
        <ele>263.12</ele>
        <time>2021-01-26T08:25:31.999Z</time>
        <extensions>
          <geotracker:meta c="4.68" s="10.47" />
        </extensions>
      </trkpt>
      <trkpt lat="18.794264" lon="99.026419">
        <ele>263.42</ele>
        <time>2021-01-26T08:25:32.999Z</time>
        <extensions>
          <geotracker:meta c="4.69" s="10.06" />
        </extensions>
      </trkpt>
      <trkpt lat="18.794259" lon="99.02624">
        <ele>263.08</ele>
        <time>2021-01-26T08:25:34.999Z</time>
        <extensions>
          <geotracker:meta c="4.68" s="9.2" />
        </extensions>
      </trkpt>
      <trkpt lat="18.794256" lon="99.026072">
        <ele>263.22</ele>
        <time>2021-01-26T08:25:36.999Z</time>
        <extensions>
          <geotracker:meta c="4.69" s="8.74" />
        </extensions>
      </trkpt>
      <trkpt lat="18.794252" lon="99.0259">
        <ele>263.67</ele>
        <time>2021-01-26T08:25:38.999Z</time>
        <extensions>
          <geotracker:meta c="4.69" s="8.92" />
        </extensions>
      </trkpt>
      <trkpt lat="18.794248" lon="99.025742">
        <ele>263.62</ele>
        <time>2021-01-26T08:25:41.000Z</time>
        <extensions>
          <geotracker:meta c="4.69" s="8.1" />
        </extensions>
      </trkpt>
      <trkpt lat="18.794246" lon="99.025599">
        <ele>263.62</ele>
        <time>2021-01-26T08:25:43.000Z</time>
        <extensions>
          <geotracker:meta c="4.7" s="7.52" />
        </extensions>
      </trkpt>
      <trkpt lat="18.794243" lon="99.025462">
        <ele>263.49</ele>
        <time>2021-01-26T08:25:45.000Z</time>
        <extensions>
          <geotracker:meta c="4.72" s="6.94" />
        </extensions>
      </trkpt>
      <trkpt lat="18.794234" lon="99.025327">
        <ele>263.32</ele>
        <time>2021-01-26T08:25:47.000Z</time>
        <extensions>
          <geotracker:meta c="4.63" s="6.96" />
        </extensions>
      </trkpt>
      <trkpt lat="18.794219" lon="99.025189">
        <ele>263.62</ele>
        <time>2021-01-26T08:25:49.000Z</time>
        <extensions>
          <geotracker:meta c="4.62" s="7.27" />
        </extensions>
      </trkpt>
      <trkpt lat="18.794218" lon="99.025061">
        <ele>263.82</ele>
        <time>2021-01-26T08:25:51.000Z</time>
        <extensions>
          <geotracker:meta c="4.73" s="6.58" />
        </extensions>
      </trkpt>
      <trkpt lat="18.79422" lon="99.024953">
        <ele>263.16</ele>
        <time>2021-01-26T08:25:53.000Z</time>
        <extensions>
          <geotracker:meta c="4.78" s="5.35" />
        </extensions>
      </trkpt>
      <trkpt lat="18.794229" lon="99.024843">
        <ele>263.03</ele>
        <time>2021-01-26T08:25:56.000Z</time>
        <extensions>
          <geotracker:meta c="4.86" s="3.64" />
        </extensions>
      </trkpt>
      <trkpt lat="18.794271" lon="99.024752">
        <ele>262.61</ele>
        <time>2021-01-26T08:25:59.000Z</time>
        <extensions>
          <geotracker:meta c="5.34" s="2.58" />
        </extensions>
      </trkpt>
      <trkpt lat="18.794373" lon="99.024707">
        <ele>261.71</ele>
        <time>2021-01-26T08:26:03.000Z</time>
        <extensions>
          <geotracker:meta c="6" s="3.89" />
        </extensions>
      </trkpt>
      <trkpt lat="18.794474" lon="99.024676">
        <ele>262.59</ele>
        <time>2021-01-26T08:26:06.000Z</time>
        <extensions>
          <geotracker:meta c="6.06" s="3.29" />
        </extensions>
      </trkpt>
      <trkpt lat="18.794608" lon="99.024649">
        <ele>262.97</ele>
        <time>2021-01-26T08:26:09.000Z</time>
        <extensions>
          <geotracker:meta c="6.04" s="6.11" />
        </extensions>
      </trkpt>
      <trkpt lat="18.794726" lon="99.024622">
        <ele>263.2</ele>
        <time>2021-01-26T08:26:11.000Z</time>
        <extensions>
          <geotracker:meta c="6.01" s="6.58" />
        </extensions>
      </trkpt>
      <trkpt lat="18.794866" lon="99.02458">
        <ele>263.44</ele>
        <time>2021-01-26T08:26:13.000Z</time>
        <extensions>
          <geotracker:meta c="6.03" s="8.48" />
        </extensions>
      </trkpt>
      <trkpt lat="18.795016" lon="99.024541">
        <ele>263.43</ele>
        <time>2021-01-26T08:26:15.000Z</time>
        <extensions>
          <geotracker:meta c="6.04" s="8.61" />
        </extensions>
      </trkpt>
      <trkpt lat="18.795176" lon="99.024506">
        <ele>262.84</ele>
        <time>2021-01-26T08:26:17.000Z</time>
        <extensions>
          <geotracker:meta c="6.04" s="9.37" />
        </extensions>
      </trkpt>
      <trkpt lat="18.795265" lon="99.024483">
        <ele>262.73</ele>
        <time>2021-01-26T08:26:18.000Z</time>
        <extensions>
          <geotracker:meta c="6.03" s="9.78" />
        </extensions>
      </trkpt>
      <trkpt lat="18.795358" lon="99.024458">
        <ele>262.73</ele>
        <time>2021-01-26T08:26:19.000Z</time>
        <extensions>
          <geotracker:meta c="6.03" s="9.9" />
        </extensions>
      </trkpt>
      <trkpt lat="18.795448" lon="99.024432">
        <ele>262.94</ele>
        <time>2021-01-26T08:26:20.000Z</time>
        <extensions>
          <geotracker:meta c="6.03" s="10.1" />
        </extensions>
      </trkpt>
      <trkpt lat="18.795538" lon="99.024407">
        <ele>262.87</ele>
        <time>2021-01-26T08:26:21.000Z</time>
        <extensions>
          <geotracker:meta c="6.03" s="10.11" />
        </extensions>
      </trkpt>
      <trkpt lat="18.795629" lon="99.024381">
        <ele>263.09</ele>
        <time>2021-01-26T08:26:22.000Z</time>
        <extensions>
          <geotracker:meta c="6.03" s="10.14" />
        </extensions>
      </trkpt>
      <trkpt lat="18.795722" lon="99.024356">
        <ele>263.23</ele>
        <time>2021-01-26T08:26:23.000Z</time>
        <extensions>
          <geotracker:meta c="6.03" s="10.11" />
        </extensions>
      </trkpt>
      <trkpt lat="18.795811" lon="99.024334">
        <ele>263.16</ele>
        <time>2021-01-26T08:26:24.000Z</time>
        <extensions>
          <geotracker:meta c="6.03" s="9.87" />
        </extensions>
      </trkpt>
      <trkpt lat="18.795984" lon="99.024289">
        <ele>263.1</ele>
        <time>2021-01-26T08:26:26.000Z</time>
        <extensions>
          <geotracker:meta c="6.03" s="9.94" />
        </extensions>
      </trkpt>
      <trkpt lat="18.796156" lon="99.024242">
        <ele>263.2</ele>
        <time>2021-01-26T08:26:28.000Z</time>
        <extensions>
          <geotracker:meta c="6.03" s="9.69" />
        </extensions>
      </trkpt>
      <trkpt lat="18.796307" lon="99.024203">
        <ele>263.05</ele>
        <time>2021-01-26T08:26:30.000Z</time>
        <extensions>
          <geotracker:meta c="6.03" s="7.93" />
        </extensions>
      </trkpt>
      <trkpt lat="18.796423" lon="99.024174">
        <ele>262.98</ele>
        <time>2021-01-26T08:26:32.000Z</time>
        <extensions>
          <geotracker:meta c="6.08" s="4.18" />
        </extensions>
      </trkpt>
      <trkpt lat="18.796558" lon="99.024138">
        <ele>262.45</ele>
        <time>2021-01-26T08:26:35.000Z</time>
        <extensions>
          <geotracker:meta c="6.03" s="6.18" />
        </extensions>
      </trkpt>
      <trkpt lat="18.796669" lon="99.024108">
        <ele>261.56</ele>
        <time>2021-01-26T08:26:37.000Z</time>
        <extensions>
          <geotracker:meta c="6.02" s="6.95" />
        </extensions>
      </trkpt>
      <trkpt lat="18.796791" lon="99.024076">
        <ele>261.49</ele>
        <time>2021-01-26T08:26:39.000Z</time>
        <extensions>
          <geotracker:meta c="6.03" s="6.91" />
        </extensions>
      </trkpt>
      <trkpt lat="18.796919" lon="99.024039">
        <ele>263.03</ele>
        <time>2021-01-26T08:26:41.000Z</time>
        <extensions>
          <geotracker:meta c="6.03" s="7.42" />
        </extensions>
      </trkpt>
      <trkpt lat="18.797053" lon="99.024004">
        <ele>263.44</ele>
        <time>2021-01-26T08:26:43.000Z</time>
        <extensions>
          <geotracker:meta c="6.06" s="6.86" />
        </extensions>
      </trkpt>
      <trkpt lat="18.797141" lon="99.023977">
        <ele>263.04</ele>
        <time>2021-01-26T08:26:45.000Z</time>
        <extensions>
          <geotracker:meta c="6.05" s="4.16" />
        </extensions>
      </trkpt>
      <trkpt lat="18.797245" lon="99.023947">
        <ele>262.12</ele>
        <time>2021-01-26T08:26:48.000Z</time>
        <extensions>
          <geotracker:meta c="6.02" s="4.78" />
        </extensions>
      </trkpt>
      <trkpt lat="18.797352" lon="99.023922">
        <ele>262.75</ele>
        <time>2021-01-26T08:26:50.000Z</time>
        <extensions>
          <geotracker:meta c="6.03" s="6.29" />
        </extensions>
      </trkpt>
      <trkpt lat="18.797473" lon="99.023887">
        <ele>262.96</ele>
        <time>2021-01-26T08:26:52.000Z</time>
        <extensions>
          <geotracker:meta c="6.03" s="7.83" />
        </extensions>
      </trkpt>
      <trkpt lat="18.797604" lon="99.023846">
        <ele>263.53</ele>
        <time>2021-01-26T08:26:54.000Z</time>
        <extensions>
          <geotracker:meta c="6.11" s="8.03" />
        </extensions>
      </trkpt>
      <trkpt lat="18.797752" lon="99.023798">
        <ele>263.08</ele>
        <time>2021-01-26T08:26:56.000Z</time>
        <extensions>
          <geotracker:meta c="5.98" s="8.85" />
        </extensions>
      </trkpt>
      <trkpt lat="18.797916" lon="99.023736">
        <ele>263.1</ele>
        <time>2021-01-26T08:26:58.000Z</time>
        <extensions>
          <geotracker:meta c="6.02" s="9.18" />
        </extensions>
      </trkpt>
      <trkpt lat="18.798007" lon="99.023707">
        <ele>263.41</ele>
        <time>2021-01-26T08:26:59.000Z</time>
        <extensions>
          <geotracker:meta c="6.03" s="9.42" />
        </extensions>
      </trkpt>
      <trkpt lat="18.798095" lon="99.023682">
        <ele>263.8</ele>
        <time>2021-01-26T08:27:00.000Z</time>
        <extensions>
          <geotracker:meta c="6.03" s="9.64" />
        </extensions>
      </trkpt>
      <trkpt lat="18.798187" lon="99.023656">
        <ele>264.34</ele>
        <time>2021-01-26T08:27:01.000Z</time>
        <extensions>
          <geotracker:meta c="6.04" s="9.71" />
        </extensions>
      </trkpt>
      <trkpt lat="18.798277" lon="99.023631">
        <ele>264</ele>
        <time>2021-01-26T08:27:02.000Z</time>
        <extensions>
          <geotracker:meta c="6.03" s="9.59" />
        </extensions>
      </trkpt>
      <trkpt lat="18.798443" lon="99.023584">
        <ele>263.53</ele>
        <time>2021-01-26T08:27:04.000Z</time>
        <extensions>
          <geotracker:meta c="6.03" s="9.06" />
        </extensions>
      </trkpt>
      <trkpt lat="18.798597" lon="99.023545">
        <ele>263.65</ele>
        <time>2021-01-26T08:27:06.000Z</time>
        <extensions>
          <geotracker:meta c="6.04" s="8.42" />
        </extensions>
      </trkpt>
      <trkpt lat="18.798744" lon="99.023513">
        <ele>263.5</ele>
        <time>2021-01-26T08:27:08.000Z</time>
        <extensions>
          <geotracker:meta c="6.06" s="6.99" />
        </extensions>
      </trkpt>
      <trkpt lat="18.798849" lon="99.023494">
        <ele>265.09</ele>
        <time>2021-01-26T08:27:10.000Z</time>
        <extensions>
          <geotracker:meta c="6.07" s="5.12" />
        </extensions>
      </trkpt>
      <trkpt lat="18.79894" lon="99.023475">
        <ele>264.55</ele>
        <time>2021-01-26T08:27:12.000Z</time>
        <extensions>
          <geotracker:meta c="6.03" s="5.74" />
        </extensions>
      </trkpt>
      <trkpt lat="18.799051" lon="99.023445">
        <ele>264.4</ele>
        <time>2021-01-26T08:27:14.000Z</time>
        <extensions>
          <geotracker:meta c="6.04" s="6.87" />
        </extensions>
      </trkpt>
      <trkpt lat="18.799179" lon="99.02341">
        <ele>264.27</ele>
        <time>2021-01-26T08:27:16.000Z</time>
        <extensions>
          <geotracker:meta c="6.03" s="8.05" />
        </extensions>
      </trkpt>
      <trkpt lat="18.799328" lon="99.023373">
        <ele>263.73</ele>
        <time>2021-01-26T08:27:18.000Z</time>
        <extensions>
          <geotracker:meta c="6.03" s="8.79" />
        </extensions>
      </trkpt>
      <trkpt lat="18.799483" lon="99.023328">
        <ele>263.87</ele>
        <time>2021-01-26T08:27:20.000Z</time>
        <extensions>
          <geotracker:meta c="6.03" s="8.91" />
        </extensions>
      </trkpt>
      <trkpt lat="18.799629" lon="99.023288">
        <ele>264.04</ele>
        <time>2021-01-26T08:27:22.000Z</time>
        <extensions>
          <geotracker:meta c="6.04" s="7.61" />
        </extensions>
      </trkpt>
      <trkpt lat="18.799722" lon="99.023264">
        <ele>264.16</ele>
        <time>2021-01-26T08:27:24.000Z</time>
        <extensions>
          <geotracker:meta c="6.07" s="4.79" />
        </extensions>
      </trkpt>
      <trkpt lat="18.799844" lon="99.023231">
        <ele>264.25</ele>
        <time>2021-01-26T08:27:27.000Z</time>
        <extensions>
          <geotracker:meta c="6.04" s="5.29" />
        </extensions>
      </trkpt>
      <trkpt lat="18.799947" lon="99.023203">
        <ele>264.13</ele>
        <time>2021-01-26T08:27:29.000Z</time>
        <extensions>
          <geotracker:meta c="6.03" s="6.25" />
        </extensions>
      </trkpt>
      <trkpt lat="18.800069" lon="99.023171">
        <ele>263.93</ele>
        <time>2021-01-26T08:27:31.000Z</time>
        <extensions>
          <geotracker:meta c="6.03" s="7.16" />
        </extensions>
      </trkpt>
      <trkpt lat="18.800197" lon="99.023138">
        <ele>264.19</ele>
        <time>2021-01-26T08:27:33.000Z</time>
        <extensions>
          <geotracker:meta c="6.04" s="7.17" />
        </extensions>
      </trkpt>
      <trkpt lat="18.800326" lon="99.023103">
        <ele>263.85</ele>
        <time>2021-01-26T08:27:35.000Z</time>
        <extensions>
          <geotracker:meta c="6.03" s="6.92" />
        </extensions>
      </trkpt>
      <trkpt lat="18.800436" lon="99.023074">
        <ele>264.15</ele>
        <time>2021-01-26T08:27:37.000Z</time>
        <extensions>
          <geotracker:meta c="6.05" s="5.66" />
        </extensions>
      </trkpt>
      <trkpt lat="18.800536" lon="99.023044">
        <ele>264</ele>
        <time>2021-01-26T08:27:40.000Z</time>
        <extensions>
          <geotracker:meta c="6.02" s="2.59" />
        </extensions>
      </trkpt>
      <trkpt lat="18.800627" lon="99.023041">
        <ele>266.08</ele>
        <time>2021-01-26T08:27:44.000Z</time>
        <extensions>
          <geotracker:meta c="0.35" s="3.53" />
        </extensions>
      </trkpt>
      <trkpt lat="18.800728" lon="99.023104">
        <ele>265.7</ele>
        <time>2021-01-26T08:27:47.000Z</time>
        <extensions>
          <geotracker:meta c="0.85" s="3.68" />
        </extensions>
      </trkpt>
      <trkpt lat="18.800784" lon="99.02321">
        <ele>266.11</ele>
        <time>2021-01-26T08:27:51.000Z</time>
        <extensions>
          <geotracker:meta c="1.23" s="3.33" />
        </extensions>
      </trkpt>
      <trkpt lat="18.800831" lon="99.023327">
        <ele>264.81</ele>
        <time>2021-01-26T08:27:54.000Z</time>
        <extensions>
          <geotracker:meta c="1.26" s="5.83" />
        </extensions>
      </trkpt>
      <trkpt lat="18.800861" lon="99.023448">
        <ele>264.32</ele>
        <time>2021-01-26T08:27:56.000Z</time>
        <extensions>
          <geotracker:meta c="1.29" s="6.97" />
        </extensions>
      </trkpt>
      <trkpt lat="18.800902" lon="99.023591">
        <ele>264.74</ele>
        <time>2021-01-26T08:27:58.000Z</time>
        <extensions>
          <geotracker:meta c="1.28" s="7.36" />
        </extensions>
      </trkpt>
      <trkpt lat="18.800949" lon="99.023733">
        <ele>264.99</ele>
        <time>2021-01-26T08:28:00.000Z</time>
        <extensions>
          <geotracker:meta c="1.28" s="8.07" />
        </extensions>
      </trkpt>
      <trkpt lat="18.800998" lon="99.023877">
        <ele>265.22</ele>
        <time>2021-01-26T08:28:02.000Z</time>
        <extensions>
          <geotracker:meta c="1.27" s="7.73" />
        </extensions>
      </trkpt>
      <trkpt lat="18.801036" lon="99.024022">
        <ele>264.35</ele>
        <time>2021-01-26T08:28:04.000Z</time>
        <extensions>
          <geotracker:meta c="1.26" s="7.82" />
        </extensions>
      </trkpt>
      <trkpt lat="18.801064" lon="99.024177">
        <ele>264.72</ele>
        <time>2021-01-26T08:28:06.000Z</time>
        <extensions>
          <geotracker:meta c="1.3" s="7.78" />
        </extensions>
      </trkpt>
      <trkpt lat="18.801094" lon="99.024322">
        <ele>265.03</ele>
        <time>2021-01-26T08:28:08.000Z</time>
        <extensions>
          <geotracker:meta c="1.29" s="7.74" />
        </extensions>
      </trkpt>
      <trkpt lat="18.80113" lon="99.024462">
        <ele>265.02</ele>
        <time>2021-01-26T08:28:10.000Z</time>
        <extensions>
          <geotracker:meta c="1.29" s="7.43" />
        </extensions>
      </trkpt>
      <trkpt lat="18.801169" lon="99.024593">
        <ele>265.7</ele>
        <time>2021-01-26T08:28:12.000Z</time>
        <extensions>
          <geotracker:meta c="1.29" s="7.42" />
        </extensions>
      </trkpt>
      <trkpt lat="18.801205" lon="99.024718">
        <ele>265.57</ele>
        <time>2021-01-26T08:28:14.000Z</time>
        <extensions>
          <geotracker:meta c="1.28" s="5.78" />
        </extensions>
      </trkpt>
      <trkpt lat="18.801224" lon="99.024829">
        <ele>265.06</ele>
        <time>2021-01-26T08:28:17.000Z</time>
        <extensions>
          <geotracker:meta c="1.24" s="2.84" />
        </extensions>
      </trkpt>
      <trkpt lat="18.801297" lon="99.024902">
        <ele>264.39</ele>
        <time>2021-01-26T08:28:25.000Z</time>
        <extensions>
          <geotracker:meta c="6.02" s="4.65" />
        </extensions>
      </trkpt>
      <trkpt lat="18.801382" lon="99.024856">
        <ele>264.13</ele>
        <time>2021-01-26T08:28:27.000Z</time>
        <extensions>
          <geotracker:meta c="5.81" s="6.34" />
        </extensions>
      </trkpt>
      <trkpt lat="18.801496" lon="99.024797">
        <ele>263.48</ele>
        <time>2021-01-26T08:28:29.000Z</time>
        <extensions>
          <geotracker:meta c="5.87" s="7.59" />
        </extensions>
      </trkpt>
      <trkpt lat="18.801645" lon="99.024744">
        <ele>264.39</ele>
        <time>2021-01-26T08:28:31.000Z</time>
        <extensions>
          <geotracker:meta c="5.92" s="8.93" />
        </extensions>
      </trkpt>
      <trkpt lat="18.801799" lon="99.024689">
        <ele>264.51</ele>
        <time>2021-01-26T08:28:33.000Z</time>
        <extensions>
          <geotracker:meta c="5.99" s="9.54" />
        </extensions>
      </trkpt>
      <trkpt lat="18.801887" lon="99.024667">
        <ele>264.22</ele>
        <time>2021-01-26T08:28:34.000Z</time>
        <extensions>
          <geotracker:meta c="6.06" s="9.96" />
        </extensions>
      </trkpt>
      <trkpt lat="18.801977" lon="99.024645">
        <ele>264.29</ele>
        <time>2021-01-26T08:28:35.000Z</time>
        <extensions>
          <geotracker:meta c="6.07" s="9.89" />
        </extensions>
      </trkpt>
      <trkpt lat="18.802066" lon="99.024628">
        <ele>264.27</ele>
        <time>2021-01-26T08:28:36.000Z</time>
        <extensions>
          <geotracker:meta c="6.12" s="9.9" />
        </extensions>
      </trkpt>
      <trkpt lat="18.802161" lon="99.02462">
        <ele>264.77</ele>
        <time>2021-01-26T08:28:37.000Z</time>
        <extensions>
          <geotracker:meta c="6.18" s="10.38" />
        </extensions>
      </trkpt>
      <trkpt lat="18.802257" lon="99.024611">
        <ele>264.88</ele>
        <time>2021-01-26T08:28:38.000Z</time>
        <extensions>
          <geotracker:meta c="6.19" s="10.41" />
        </extensions>
      </trkpt>
      <trkpt lat="18.802354" lon="99.024601">
        <ele>264.17</ele>
        <time>2021-01-26T08:28:39.000Z</time>
        <extensions>
          <geotracker:meta c="6.19" s="10.32" />
        </extensions>
      </trkpt>
      <trkpt lat="18.802452" lon="99.024589">
        <ele>264.42</ele>
        <time>2021-01-26T08:28:40.000Z</time>
        <extensions>
          <geotracker:meta c="6.19" s="10.1" />
        </extensions>
      </trkpt>
      <trkpt lat="18.802627" lon="99.02457">
        <ele>264.32</ele>
        <time>2021-01-26T08:28:42.000Z</time>
        <extensions>
          <geotracker:meta c="6.18" s="9.46" />
        </extensions>
      </trkpt>
      <trkpt lat="18.802778" lon="99.024553">
        <ele>264.65</ele>
        <time>2021-01-26T08:28:44.000Z</time>
        <extensions>
          <geotracker:meta c="6.18" s="7.29" />
        </extensions>
      </trkpt>
      <trkpt lat="18.802879" lon="99.024539">
        <ele>264.65</ele>
        <time>2021-01-26T08:28:46.000Z</time>
        <extensions>
          <geotracker:meta c="6.18" s="3.98" />
        </extensions>
      </trkpt>
      <trkpt lat="18.802983" lon="99.024529">
        <ele>264.46</ele>
        <time>2021-01-26T08:28:50.000Z</time>
        <extensions>
          <geotracker:meta c="6.17" s="2.76" />
        </extensions>
      </trkpt>
      <trkpt lat="18.803089" lon="99.024519">
        <ele>264.95</ele>
        <time>2021-01-26T08:28:53.000Z</time>
        <extensions>
          <geotracker:meta c="6.19" s="4.94" />
        </extensions>
      </trkpt>
      <trkpt lat="18.803197" lon="99.024511">
        <ele>265.13</ele>
        <time>2021-01-26T08:28:55.000Z</time>
        <extensions>
          <geotracker:meta c="6.19" s="6.81" />
        </extensions>
      </trkpt>
      <trkpt lat="18.803333" lon="99.024496">
        <ele>265</ele>
        <time>2021-01-26T08:28:57.000Z</time>
        <extensions>
          <geotracker:meta c="6.17" s="7.94" />
        </extensions>
      </trkpt>
      <trkpt lat="18.803492" lon="99.024482">
        <ele>264.92</ele>
        <time>2021-01-26T08:28:59.000Z</time>
        <extensions>
          <geotracker:meta c="6.21" s="9.11" />
        </extensions>
      </trkpt>
      <trkpt lat="18.803665" lon="99.02448">
        <ele>265.1</ele>
        <time>2021-01-26T08:29:01.000Z</time>
        <extensions>
          <geotracker:meta c="0" s="9.73" />
        </extensions>
      </trkpt>
      <trkpt lat="18.80384" lon="99.024493">
        <ele>265.02</ele>
        <time>2021-01-26T08:29:03.000Z</time>
        <extensions>
          <geotracker:meta c="0.12" s="10.04" />
        </extensions>
      </trkpt>
      <trkpt lat="18.804013" lon="99.024522">
        <ele>264.79</ele>
        <time>2021-01-26T08:29:05.000Z</time>
        <extensions>
          <geotracker:meta c="0.2" s="10" />
        </extensions>
      </trkpt>
      <trkpt lat="18.804188" lon="99.024563">
        <ele>264.52</ele>
        <time>2021-01-26T08:29:07.000Z</time>
        <extensions>
          <geotracker:meta c="0.22" s="10.16" />
        </extensions>
      </trkpt>
      <trkpt lat="18.804356" lon="99.024602">
        <ele>264.42</ele>
        <time>2021-01-26T08:29:09.000Z</time>
        <extensions>
          <geotracker:meta c="0.21" s="9.48" />
        </extensions>
      </trkpt>
      <trkpt lat="18.804589" lon="99.024657">
        <ele>264.32</ele>
        <time>2021-01-26T08:29:12.000Z</time>
        <extensions>
          <geotracker:meta c="0.18" s="8.86" />
        </extensions>
      </trkpt>
      <trkpt lat="18.804789" lon="99.024677">
        <ele>264.13</ele>
        <time>2021-01-26T08:29:15.000Z</time>
        <extensions>
          <geotracker:meta c="0.1" s="6.37" />
        </extensions>
      </trkpt>
      <trkpt lat="18.804883" lon="99.024678">
        <ele>264.49</ele>
        <time>2021-01-26T08:29:17.000Z</time>
        <extensions>
          <geotracker:meta c="6.25" s="5.1" />
        </extensions>
      </trkpt>
      <trkpt lat="18.804998" lon="99.024672">
        <ele>264.74</ele>
        <time>2021-01-26T08:29:19.000Z</time>
        <extensions>
          <geotracker:meta c="6.16" s="6.69" />
        </extensions>
      </trkpt>
      <trkpt lat="18.805132" lon="99.024653">
        <ele>264.97</ele>
        <time>2021-01-26T08:29:21.000Z</time>
        <extensions>
          <geotracker:meta c="6.12" s="7.48" />
        </extensions>
      </trkpt>
      <trkpt lat="18.80527" lon="99.024623">
        <ele>264.81</ele>
        <time>2021-01-26T08:29:23.000Z</time>
        <extensions>
          <geotracker:meta c="6.03" s="8.01" />
        </extensions>
      </trkpt>
      <trkpt lat="18.805425" lon="99.02457">
        <ele>264.68</ele>
        <time>2021-01-26T08:29:25.000Z</time>
        <extensions>
          <geotracker:meta c="5.97" s="9.2" />
        </extensions>
      </trkpt>
      <trkpt lat="18.805584" lon="99.024502">
        <ele>264.89</ele>
        <time>2021-01-26T08:29:27.000Z</time>
        <extensions>
          <geotracker:meta c="5.92" s="9.15" />
        </extensions>
      </trkpt>
      <trkpt lat="18.805798" lon="99.024386">
        <ele>264.73</ele>
        <time>2021-01-26T08:29:30.000Z</time>
        <extensions>
          <geotracker:meta c="5.74" s="8.99" />
        </extensions>
      </trkpt>
      <trkpt lat="18.805929" lon="99.024274">
        <ele>265.13</ele>
        <time>2021-01-26T08:29:32.000Z</time>
        <extensions>
          <geotracker:meta c="5.53" s="10.09" />
        </extensions>
      </trkpt>
      <trkpt lat="18.806058" lon="99.024133">
        <ele>265.61</ele>
        <time>2021-01-26T08:29:34.000Z</time>
        <extensions>
          <geotracker:meta c="5.42" s="9.99" />
        </extensions>
      </trkpt>
      <trkpt lat="18.806116" lon="99.024055">
        <ele>265.56</ele>
        <time>2021-01-26T08:29:35.000Z</time>
        <extensions>
          <geotracker:meta c="5.39" s="9.98" />
        </extensions>
      </trkpt>
      <trkpt lat="18.806163" lon="99.023967">
        <ele>265.26</ele>
        <time>2021-01-26T08:29:36.000Z</time>
        <extensions>
          <geotracker:meta c="5.27" s="10.57" />
        </extensions>
      </trkpt>
      <trkpt lat="18.806213" lon="99.023877">
        <ele>264.98</ele>
        <time>2021-01-26T08:29:37.000Z</time>
        <extensions>
          <geotracker:meta c="5.27" s="10.42" />
        </extensions>
      </trkpt>
      <trkpt lat="18.806312" lon="99.023693">
        <ele>264.74</ele>
        <time>2021-01-26T08:29:39.000Z</time>
        <extensions>
          <geotracker:meta c="5.21" s="10.85" />
        </extensions>
      </trkpt>
      <trkpt lat="18.806362" lon="99.023599">
        <ele>264.53</ele>
        <time>2021-01-26T08:29:40.000Z</time>
        <extensions>
          <geotracker:meta c="5.21" s="10.64" />
        </extensions>
      </trkpt>
      <trkpt lat="18.806413" lon="99.023505">
        <ele>264.79</ele>
        <time>2021-01-26T08:29:41.000Z</time>
        <extensions>
          <geotracker:meta c="5.23" s="10.74" />
        </extensions>
      </trkpt>
      <trkpt lat="18.806508" lon="99.023329">
        <ele>264.77</ele>
        <time>2021-01-26T08:29:43.000Z</time>
        <extensions>
          <geotracker:meta c="5.22" s="10.2" />
        </extensions>
      </trkpt>
      <trkpt lat="18.806597" lon="99.023161">
        <ele>264.11</ele>
        <time>2021-01-26T08:29:45.000Z</time>
        <extensions>
          <geotracker:meta c="5.23" s="9.45" />
        </extensions>
      </trkpt>
      <trkpt lat="18.80668" lon="99.023004">
        <ele>264.44</ele>
        <time>2021-01-26T08:29:47.000Z</time>
        <extensions>
          <geotracker:meta c="5.24" s="8.71" />
        </extensions>
      </trkpt>
      <trkpt lat="18.806739" lon="99.022879">
        <ele>264.51</ele>
        <time>2021-01-26T08:29:49.000Z</time>
        <extensions>
          <geotracker:meta c="5.22" s="6.54" />
        </extensions>
      </trkpt>
      <trkpt lat="18.806783" lon="99.022793">
        <ele>264.77</ele>
        <time>2021-01-26T08:29:51.000Z</time>
        <extensions>
          <geotracker:meta c="5.42" s="3.82" />
        </extensions>
      </trkpt>
      <trkpt lat="18.806805" lon="99.022689">
        <ele>264.12</ele>
        <time>2021-01-26T08:30:01.000Z</time>
        <extensions>
          <geotracker:meta c="4.12" s="3.78" />
        </extensions>
      </trkpt>
      <trkpt lat="18.806749" lon="99.022606">
        <ele>264.24</ele>
        <time>2021-01-26T08:30:03.000Z</time>
        <extensions>
          <geotracker:meta c="4.15" s="5.88" />
        </extensions>
      </trkpt>
      <trkpt lat="18.80667" lon="99.022492">
        <ele>264.43</ele>
        <time>2021-01-26T08:30:05.000Z</time>
        <extensions>
          <geotracker:meta c="4.12" s="7.87" />
        </extensions>
      </trkpt>
      <trkpt lat="18.806578" lon="99.022356">
        <ele>264.54</ele>
        <time>2021-01-26T08:30:07.000Z</time>
        <extensions>
          <geotracker:meta c="4.1" s="9.95" />
        </extensions>
      </trkpt>
      <trkpt lat="18.806524" lon="99.022277">
        <ele>264.65</ele>
        <time>2021-01-26T08:30:08.000Z</time>
        <extensions>
          <geotracker:meta c="4.09" s="10.15" />
        </extensions>
      </trkpt>
      <trkpt lat="18.806467" lon="99.022197">
        <ele>265.04</ele>
        <time>2021-01-26T08:30:09.000Z</time>
        <extensions>
          <geotracker:meta c="4.08" s="10.26" />
        </extensions>
      </trkpt>
      <trkpt lat="18.80641" lon="99.022118">
        <ele>265.01</ele>
        <time>2021-01-26T08:30:10.000Z</time>
        <extensions>
          <geotracker:meta c="4.07" s="10.21" />
        </extensions>
      </trkpt>
      <trkpt lat="18.806304" lon="99.021972">
        <ele>265.15</ele>
        <time>2021-01-26T08:30:12.000Z</time>
        <extensions>
          <geotracker:meta c="4.07" s="9.65" />
        </extensions>
      </trkpt>
      <trkpt lat="18.806194" lon="99.021822">
        <ele>265.12</ele>
        <time>2021-01-26T08:30:14.000Z</time>
        <extensions>
          <geotracker:meta c="4.07" s="10.13" />
        </extensions>
      </trkpt>
      <trkpt lat="18.80614" lon="99.021742">
        <ele>265.27</ele>
        <time>2021-01-26T08:30:15.000Z</time>
        <extensions>
          <geotracker:meta c="4.09" s="10.38" />
        </extensions>
      </trkpt>
      <trkpt lat="18.806083" lon="99.02166">
        <ele>265.35</ele>
        <time>2021-01-26T08:30:16.000Z</time>
        <extensions>
          <geotracker:meta c="4.09" s="10.6" />
        </extensions>
      </trkpt>
      <trkpt lat="18.806026" lon="99.021577">
        <ele>265.33</ele>
        <time>2021-01-26T08:30:17.000Z</time>
        <extensions>
          <geotracker:meta c="4.09" s="10.89" />
        </extensions>
      </trkpt>
      <trkpt lat="18.805968" lon="99.021491">
        <ele>265.44</ele>
        <time>2021-01-26T08:30:18.000Z</time>
        <extensions>
          <geotracker:meta c="4.09" s="11.08" />
        </extensions>
      </trkpt>
      <trkpt lat="18.805907" lon="99.021404">
        <ele>265.47</ele>
        <time>2021-01-26T08:30:19.000Z</time>
        <extensions>
          <geotracker:meta c="4.07" s="11.34" />
        </extensions>
      </trkpt>
      <trkpt lat="18.805845" lon="99.021315">
        <ele>265.47</ele>
        <time>2021-01-26T08:30:20.000Z</time>
        <extensions>
          <geotracker:meta c="4.07" s="11.55" />
        </extensions>
      </trkpt>
      <trkpt lat="18.805781" lon="99.021227">
        <ele>265.58</ele>
        <time>2021-01-26T08:30:21.000Z</time>
        <extensions>
          <geotracker:meta c="4.07" s="11.71" />
        </extensions>
      </trkpt>
      <trkpt lat="18.805717" lon="99.021138">
        <ele>265.64</ele>
        <time>2021-01-26T08:30:22.000Z</time>
        <extensions>
          <geotracker:meta c="4.07" s="11.84" />
        </extensions>
      </trkpt>
      <trkpt lat="18.805652" lon="99.021047">
        <ele>265.65</ele>
        <time>2021-01-26T08:30:23.000Z</time>
        <extensions>
          <geotracker:meta c="4.07" s="11.91" />
        </extensions>
      </trkpt>
      <trkpt lat="18.805524" lon="99.020867">
        <ele>265.7</ele>
        <time>2021-01-26T08:30:25.000Z</time>
        <extensions>
          <geotracker:meta c="4.07" s="11.84" />
        </extensions>
      </trkpt>
      <trkpt lat="18.805461" lon="99.020779">
        <ele>265.7</ele>
        <time>2021-01-26T08:30:26.000Z</time>
        <extensions>
          <geotracker:meta c="4.07" s="11.61" />
        </extensions>
      </trkpt>
      <trkpt lat="18.805397" lon="99.02069">
        <ele>265.71</ele>
        <time>2021-01-26T08:30:27.000Z</time>
        <extensions>
          <geotracker:meta c="4.07" s="11.67" />
        </extensions>
      </trkpt>
      <trkpt lat="18.805272" lon="99.020514">
        <ele>265.66</ele>
        <time>2021-01-26T08:30:29.000Z</time>
        <extensions>
          <geotracker:meta c="4.07" s="11.62" />
        </extensions>
      </trkpt>
      <trkpt lat="18.805209" lon="99.020425">
        <ele>265.66</ele>
        <time>2021-01-26T08:30:30.000Z</time>
        <extensions>
          <geotracker:meta c="4.06" s="11.71" />
        </extensions>
      </trkpt>
      <trkpt lat="18.805145" lon="99.020337">
        <ele>265.57</ele>
        <time>2021-01-26T08:30:31.000Z</time>
        <extensions>
          <geotracker:meta c="4.06" s="11.74" />
        </extensions>
      </trkpt>
      <trkpt lat="18.805083" lon="99.02025">
        <ele>265.58</ele>
        <time>2021-01-26T08:30:32.000Z</time>
        <extensions>
          <geotracker:meta c="4.06" s="11.48" />
        </extensions>
      </trkpt>
      <trkpt lat="18.805021" lon="99.020164">
        <ele>265.53</ele>
        <time>2021-01-26T08:30:33.000Z</time>
        <extensions>
          <geotracker:meta c="4.06" s="11.39" />
        </extensions>
      </trkpt>
      <trkpt lat="18.804958" lon="99.02008">
        <ele>265.53</ele>
        <time>2021-01-26T08:30:34.000Z</time>
        <extensions>
          <geotracker:meta c="4.05" s="11.34" />
        </extensions>
      </trkpt>
      <trkpt lat="18.804892" lon="99.019998">
        <ele>265.5</ele>
        <time>2021-01-26T08:30:35.000Z</time>
        <extensions>
          <geotracker:meta c="4.02" s="11.28" />
        </extensions>
      </trkpt>
      <trkpt lat="18.804826" lon="99.019917">
        <ele>265.52</ele>
        <time>2021-01-26T08:30:36.000Z</time>
        <extensions>
          <geotracker:meta c="4" s="11.37" />
        </extensions>
      </trkpt>
      <trkpt lat="18.80476" lon="99.019835">
        <ele>265.56</ele>
        <time>2021-01-26T08:30:37.000Z</time>
        <extensions>
          <geotracker:meta c="4" s="11.32" />
        </extensions>
      </trkpt>
      <trkpt lat="18.804694" lon="99.019753">
        <ele>265.61</ele>
        <time>2021-01-26T08:30:38.000Z</time>
        <extensions>
          <geotracker:meta c="4" s="11.02" />
        </extensions>
      </trkpt>
      <trkpt lat="18.804637" lon="99.019675">
        <ele>265.91</ele>
        <time>2021-01-26T08:30:39.000Z</time>
        <extensions>
          <geotracker:meta c="4.03" s="10.5" />
        </extensions>
      </trkpt>
      <trkpt lat="18.804578" lon="99.019595">
        <ele>265.9</ele>
        <time>2021-01-26T08:30:40.000Z</time>
        <extensions>
          <geotracker:meta c="4.05" s="10.33" />
        </extensions>
      </trkpt>
      <trkpt lat="18.804521" lon="99.019517">
        <ele>265.93</ele>
        <time>2021-01-26T08:30:41.000Z</time>
        <extensions>
          <geotracker:meta c="4.06" s="10.15" />
        </extensions>
      </trkpt>
      <trkpt lat="18.804413" lon="99.01937">
        <ele>265.77</ele>
        <time>2021-01-26T08:30:43.000Z</time>
        <extensions>
          <geotracker:meta c="4.06" s="8.91" />
        </extensions>
      </trkpt>
      <trkpt lat="18.804329" lon="99.019256">
        <ele>265.85</ele>
        <time>2021-01-26T08:30:45.000Z</time>
        <extensions>
          <geotracker:meta c="4.06" s="6.89" />
        </extensions>
      </trkpt>
      <trkpt lat="18.804245" lon="99.01915">
        <ele>265.35</ele>
        <time>2021-01-26T08:30:49.000Z</time>
        <extensions>
          <geotracker:meta c="3.46" s="1.65" />
        </extensions>
      </trkpt>
      <trkpt lat="18.804179" lon="99.019228">
        <ele>265.52</ele>
        <time>2021-01-26T08:30:54.000Z</time>
        <extensions>
          <geotracker:meta c="2.32" s="2.53" />
        </extensions>
      </trkpt>
      <trkpt lat="18.804113" lon="99.019293">
        <ele>264.82</ele>
        <time>2021-01-26T08:30:58.000Z</time>
        <extensions>
          <geotracker:meta c="2.67" s="1.38" />
        </extensions>
      </trkpt>
      <trkpt lat="18.803988" lon="99.01933">
        <ele>265.54</ele>
        <time>2021-01-26T08:31:08.000Z</time>
        <extensions>
          <geotracker:meta c="2.53" s="3.79" />
        </extensions>
      </trkpt>
      <trkpt lat="18.803896" lon="99.019404">
        <ele>266.06</ele>
        <time>2021-01-26T08:31:11.000Z</time>
        <extensions>
          <geotracker:meta c="2.5" s="4.37" />
        </extensions>
      </trkpt>
      <trkpt lat="18.803814" lon="99.01948">
        <ele>265.69</ele>
        <time>2021-01-26T08:31:13.000Z</time>
        <extensions>
          <geotracker:meta c="2.37" s="6.15" />
        </extensions>
      </trkpt>
      <trkpt lat="18.803733" lon="99.019567">
        <ele>266.64</ele>
        <time>2021-01-26T08:31:15.000Z</time>
        <extensions>
          <geotracker:meta c="2.32" s="6.18" />
        </extensions>
      </trkpt>
      <trkpt lat="18.803656" lon="99.01967">
        <ele>266.8</ele>
        <time>2021-01-26T08:31:17.000Z</time>
        <extensions>
          <geotracker:meta c="2.21" s="6.39" />
        </extensions>
      </trkpt>
      <trkpt lat="18.80358" lon="99.019777">
        <ele>266.18</ele>
        <time>2021-01-26T08:31:19.000Z</time>
        <extensions>
          <geotracker:meta c="2.21" s="5.54" />
        </extensions>
      </trkpt>
      <trkpt lat="18.803542" lon="99.019891">
        <ele>265.81</ele>
        <time>2021-01-26T08:31:22.000Z</time>
        <extensions>
          <geotracker:meta c="1.56" s="1.86" />
        </extensions>
      </trkpt>
      <trkpt lat="18.803583" lon="99.019981">
        <ele>265.63</ele>
        <time>2021-01-26T08:31:24.000Z</time>
        <extensions>
          <geotracker:meta c="0.96" s="3.93" />
        </extensions>
      </trkpt>
      <trkpt lat="18.803644" lon="99.02009">
        <ele>265.6</ele>
        <time>2021-01-26T08:31:27.000Z</time>
        <extensions>
          <geotracker:meta c="0.89" s="3.25" />
        </extensions>
      </trkpt>
      <trkpt lat="18.80373" lon="99.020121">
        <ele>265.42</ele>
        <time>2021-01-26T08:31:32.000Z</time>
        <extensions>
          <geotracker:meta c="5.77" s="1.27" />
        </extensions>
      </trkpt>
    </trkseg>
  </trk>
</gpx>